…
A general overview of the data quantity contained in Gbif.

``` r
res <- occ_search(taxonKey = key, limit=100)
res
```

    ## Records found [839] 
    ## Records returned [100] 
    ## No. unique hierarchies [8] 
    ## No. media records [1] 
    ## No. facets [0] 
    ## Args [limit=100, offset=0, taxonKey=4751178, fields=all] 
    ## # A tibble: 100 x 79
    ##    name       key decimalLatitude decimalLongitude issues   datasetKey    
    ##    <chr>    <int>           <dbl>            <dbl> <chr>    <chr>         
    ##  1 Nurus   1.63e9           -26.8             153. cdround… 84a649ce-ff81…
    ##  2 Nurus … 1.45e9           -28.9             153. cdrep    0645ccdb-e001…
    ##  3 Nurus … 1.45e9           -28.8             153. cdrep    0645ccdb-e001…
    ##  4 Nurus … 1.45e9           -28.9             153. cdrep    0645ccdb-e001…
    ##  5 Nurus   1.06e9           -28.6             153. gass84,… 5d283bb6-64dd…
    ##  6 Nurus   1.06e9           -28.2             153. gass84,… 5d283bb6-64dd…
    ##  7 Nurus … 1.63e9           -28.8             153. gass84   a79c2b50-6c8a…
    ##  8 Nurus … 1.06e9           -21.2             149. gass84,… 5d283bb6-64dd…
    ##  9 Nurus   1.06e9           -21.1             149. gass84,… 5d283bb6-64dd…
    ## 10 Nurus … 1.06e9           -21.1             149. gass84,… 5d283bb6-64dd…
    ## # ... with 90 more rows, and 73 more variables: publishingOrgKey <chr>,
    ## #   publishingCountry <chr>, protocol <chr>, lastCrawled <chr>,
    ## #   lastParsed <chr>, crawlId <int>, extensions <chr>,
    ## #   basisOfRecord <chr>, individualCount <int>, taxonKey <int>,
    ## #   kingdomKey <int>, phylumKey <int>, classKey <int>, orderKey <int>,
    ## #   familyKey <int>, genusKey <int>, scientificName <chr>, kingdom <chr>,
    ## #   phylum <chr>, order <chr>, family <chr>, genus <chr>,
    ## #   genericName <chr>, taxonRank <chr>, year <int>, month <int>,
    ## #   day <int>, eventDate <chr>, modified <chr>, lastInterpreted <chr>,
…
